{
  "project_info": {
    "project_number": "308815771876",
    "firebase_url": "https://lenvohre.firebaseio.com",
    "project_id": "lenvohre",
    "storage_bucket": "lenvohre.appspot.com"
  },
  "client": [
    {
      "client_info": {
        "mobilesdk_app_id": "1:308815771876:android:a47588fe415084c6c194f1",
        "android_client_info": {
          "package_name": "com.hrsystem.azaress"
        }
      },
      "oauth_client": [
        {
          "client_id": "308815771876-1pa27081jl1qdjvv0ba89iu453q0sbl8.apps.googleusercontent.com",
          "client_type": 3
        }
      ],
      "api_key": [
        {
          "current_key": "AIzaSyCWFZZDKXDc631FLQz9XQwzc75sh3296vY"
        }
      ],
      "services": {
        "appinvite_service": {
          "other_platform_oauth_client": [
            {
              "client_id": "308815771876-1pa27081jl1qdjvv0ba89iu453q0sbl8.apps.googleusercontent.com",
              "client_type": 3
            },
            {
              "client_id": "308815771876-32qt3gurivud1s2oih0an5i8p3m3lggv.apps.googleusercontent.com",
              "client_type": 2,
              "ios_info": {
                "bundle_id": "com.lenvosoft.lenvoHRE"
              }
            }
          ]
        }
      }
    },
    {
      "client_info": {
        "mobilesdk_app_id": "1:308815771876:android:493805a6cc0c799f",
        "android_client_info": {
          "package_name": "com.hrsystem.lenvohre.lenvohre"
        }
      },
      "oauth_client": [
        {
          "client_id": "308815771876-1pa27081jl1qdjvv0ba89iu453q0sbl8.apps.googleusercontent.com",
          "client_type": 3
        }
      ],
      "api_key": [
        {
          "current_key": "AIzaSyCWFZZDKXDc631FLQz9XQwzc75sh3296vY"
        }
      ],
      "services": {
        "appinvite_service": {
          "other_platform_oauth_client": [
            {
              "client_id": "308815771876-1pa27081jl1qdjvv0ba89iu453q0sbl8.apps.googleusercontent.com",
              "client_type": 3
            },
            {
              "client_id": "308815771876-32qt3gurivud1s2oih0an5i8p3m3lggv.apps.googleusercontent.com",
              "client_type": 2,
              "ios_info": {
                "bundle_id": "com.lenvosoft.lenvoHRE"
              }
            }
          ]
        }
      }
    }
  ],
  "configuration_version": "1"
}